Message arrived [test013525325230975231762196298707/devices/lora01/up] 0     app_id:test013525325230975231762196298707
1     dev_id:lora01
2     hardware_serial:001D55CB6F7DCB89
3     port:1
4     counter:1
5     payload_raw:AAAAAAAA
6     payload_fields:lat:0
7     lng:0
8     metadata:time:2019-03-04T19:14:25.788980175Z
9     frequency:868.3
10     modulation:LORA
11     data_rate:SF7BW125
12     airtime:51456000
13     coding_rate:4/5
14     gateways:[gtw_id:eui-b827ebfffe8a6b2d
15     timestamp:3890030291
16     time:2019-03-04T19:14:25.76587Z
17     channel:1
18     rssi:-45
19     snr:11
20     rf_chain:1
21     latitude:53.601105
22     longitude:11.4181385
23     altitude:40
24     location_source:registry]
25     
26     
27     
28     
29     